Index: uw_admissions.module
===================================================================
--- uw_admissions.module	(revision 10440)
+++ uw_admissions.module	(working copy)
@@ -1,699 +1,752 @@
-<?php
-/**
- * @file
- * Admissions module for UW's marketing and undergraduate recruitment department. Students will out a form for their on-campus visit. Upon doing this, the student will receive an email.
- * The CTR scheduling system then uses this data to build the visitor centre schedule.
- */
- 
- /**
- * Implements hook_menu().
- */
-function uw_admissions_menu() {
-  $items = array();
-  //The form itself.
-  $items['admissions/admission-requirements'] = array(
-    'title' => 'Admission requirements 2014',
-    'page callback' => 'drupal_get_form',
-    'page arguments' => array('uw_admissions_page1_form_render'),
-    'access arguments' => array('access content'),
-    'type' => MENU_NORMAL_ITEM,
-    'menu_name' => "main-menu",
-    'weight' => 100,
-  );
-  //This is the one that actually displays the results.
-  $items['admissions/admission-requirements/%/%/%/%/%/%/%'] = array(
-    'title' => 'Your 2014 admission requirements',
-    'page callback' => 'uw_admissions_callback',
-    'type' => MENU_NORMAL_ITEM,
-    'page arguments' => array(2, 3, 4, 5, 6, 7, 8), // these are the seven wildcards, see uw_admissions_page1_form_submit for more details
-    'access arguments' => array('access content'), // access arguments are required
-  );
-return $items;
-}
-//The admissions form.
-function uw_admissions_page1_form($form_state) {
-    $path = drupal_get_path('module', 'uw_admissions');
-    drupal_add_js($path . '/js/uw_admissions_page1.js');
-    drupal_add_css($path . '/theme/css/uw_admissions_form.css');
-    $form['studentType'] = array(
-        '#type' => 'select',
-        '#title' => t('<b>I am:</b>'),
-        '#options' => array(
-            1 => t('Attending / recently graduated from a Canadian high school'),
-            2 => t('Attending / recently graduated from a high school outside of Canada'),
-            3 => t('Other'),
-        ),
-        '#default_value' => 1,
-        '#prefix' => '<div class="section">',
-        '#suffix' => '</div>',
-    );
-    $form['nonTypicalStudentTypes'] = array(
-        '#type' => 'select',
-        '#options' => array(
-            1 => t('General Educational Development (GED) student'),
-            2 => t('Home-schooled student'),
-            3 => t('Mature student'),
-            4 => t('University or college student'),
-        ),
-        '#default_value' => 1,
-        '#prefix' => '<div class="section" id="nonTypicalStudentTypes">',
-        '#suffix' => '</div>',
-    );
-    $form['province'] = array(
-        '#type' => 'select',
-        '#title' => t('<b>My province/territory:</b>'),
-        '#options' => array(
-            1 => t('Alberta'),
-            2 => t('British Columbia'),
-            3 => t('Manitoba'),
-            4 => t('New Brunswick'),
-            5 => t('Newfoundland and Labrador'),
-            6 => t('Northwest Territories'),
-            7 => t('Nova Scotia'),
-            8 => t('Nunavut'),
-            9 => t('Ontario'),
-            10 => t('Prince Edward Island'),
-            11 => t('Quebec'),
-            14 => t('Quebec (CEGEP)'),
-            12 => t('Saskatchewan'),
-            13 => t('Yukon'),
-        ),
-        '#default_value' => 9,
-        '#prefix' => '<div id="canadian"><div class="section">',
-        '#suffix' => '</div>',
-    );
-    $form['apib'] = array(
-        '#type' => 'checkboxes',
-        '#options' => drupal_map_assoc(array(t('Advanced Placement (AP) student'), t('International Baccalaureate (IB) student'))),
-        '#title' => t('<b>I am an:</b>'),
-        '#prefix' => '<div class="section">',
-        '#suffix' => '</div></div>',
-    );
-    $form['system'] = array(
-        '#type' => 'radios',
-        '#title' => t('<b>System of study:</b>'),
-        '#options' => array(
-            7 => t('American (US) System'),
-            1 => t('British System (A-levels/International A-levels)'),
-            9 => t('Cambridge Pre-U'),
-            2 => t('Caribbean Advanced Proficiency Examination (CAPE)'),
-            3 => t('Chinese System'),
-            4 => t('French Baccalaureate'),
-            5 => t('Indian System'),
-            6 => t('International Baccalaureate (IB)'),
-            10 => t('Hong Kong Diploma of Secondary Education (HKDSE)'),
-			22 => t('Azerbaijan National System'),
-            1000 => t('I\'m studying in a country/system other than those listed above')),
-        '#prefix' => '<div id="international" class="section">',
-        '#default_value' => 1,
-    );
-    $form['country'] = array(
-        '#type' => 'select',
-        '#title' => t('<b>Country:</b>'),
-        '#options' => array(
-          1 => t('Afghanistan'),
-          3 => t('Albania'),
-          4 => t('Algeria'),
-          6 => t('Andorra'),
-          7 => t('Angola'),
-          8 => t('Anguilla'),
-          10 => t('Antigua & Barbuda'),
-          11 => t('Argentina'),
-          12 => t('Armenia'),
-          15 => t('Australia'),
-          16 => t('Austria'),
-          17 => t('Azerbaijan'),
-          18 => t('Bahamas'),
-          19 => t('Bahrain'),
-          20 => t('Bangladesh'),
-          21 => t('Barbados'),
-          23 => t('Belarus'),
-          24 => t('Belgium'),
-          25 => t('Belize'),
-          26 => t('Benin'),
-          27 => t('Bermuda'),
-          28 => t('Bhutan'),
-          29 => t('Bolivia'),
-          31 => t('Bosnia and Herzegovina'),
-          32 => t('Botswana'),
-          34 => t('Brazil'),
-          36 => t('British Virgin Islands'),
-          37 => t('Brunei'),
-          38 => t('Bulgaria'),
-          39 => t('Burkina Faso'),
-          40 => t('Burma'),
-          41 => t('Burundi'),
-          42 => t('Cambodia'),
-          33 => t('Cameroon Republic'),
-          44 => t('Cape Verde'),
-          45 => t('Cayman Islands'),
-          46 => t('Central Africa Republic'),
-          47 => t('Chad'),
-          48 => t('Chile'),
-          49 => t('China'),
-          53 => t('Colombia'),
-          54 => t('Comoros'),
-          57 => t('Costa Rica'),
-          58 => t('Cote D\'Ivoire'),
-          59 => t('Croatia'),
-          60 => t('Cuba'),
-          62 => t('Cyprus'),
-          63 => t('Czech Republic'),
-          64 => t('Democratic Republic of the Congo'),
-          65 => t('Denmark'),
-          67 => t('Djibouti'),
-          68 => t('Dominica'),
-          69 => t('Dominican Republic'),
-          70 => t('Ecuador'),
-          71 => t('Egypt'),
-          72 => t('El Salvador'),
-          74 => t('Eritrea'),
-          75 => t('Estonia'),
-          76 => t('Ethiopia'),
-          80 => t('Fiji'),
-          81 => t('Finland'),
-          82 => t('France'),
-          83 => t('French Guiana'),
-          86 => t('Gabon'),
-          66 => t('Gambia'),
-          89 => t('Georgia'),
-          90 => t('Germany'),
-          91 => t('Ghana'),
-          92 => t('Gibraltar'),
-          94 => t('Greece'),
-          96 => t('Grenada'),
-          99 => t('Guatemala'),
-          101 => t('Guinea'),
-          103 => t('Guyana'),
-          104 => t('Haiti'),
-          106 => t('Holy See'),
-          107 => t('Honduras'),
-          108 => t('Hong Kong'),
-          109 => t('Hungary'),
-          110 => t('Iceland'),
-          111 => t('India'),
-          112 => t('Indonesia'),
-          113 => t('Iran'),
-          114 => t('Iraq'),
-          115 => t('Ireland'),
-          117 => t('Israel'),
-          118 => t('Italy'),
-          119 => t('Jamaica'),
-          121 => t('Japan'),
-          123 => t('Jordan'),
-          125 => t('Kazakhstan'),
-          126 => t('Kenya'),
-          128 => t('Korea, North'),
-          129 => t('Korea, South'),
-          130 => t('Kuwait'),
-          131 => t('Kyrqyzstan'),
-          132 => t('Laos'),
-          133 => t('Latvia'),
-          134 => t('Lebanon'),
-          135 => t('Lesotho'),
-          136 => t('Liberia'),
-          137 => t('Libya'),
-          138 => t('Liechtenstein'),
-          139 => t('Lithuania'),
-          140 => t('Luxembourg'),
-          141 => t('Macau'),
-          142 => t('Macedonia'),
-          143 => t('Madagascar'),
-          144 => t('Malawi'),
-          145 => t('Malaysia'),
-          146 => t('Maldives'),
-          147 => t('Mali'),
-          148 => t('Malta'),
-          151 => t('Mauritania'),
-          152 => t('Mauritius'),
-          154 => t('Mexico'),
-          156 => t('Moldova, Republic Of'),
-          158 => t('Mongolia'),
-          203 => t('Montenegro'),
-          159 => t('Montserrat'),
-          160 => t('Morocco'),
-          161 => t('Mozambique'),
-          162 => t('Namibia'),
-          165 => t('Nepal'),
-          166 => t('Netherlands'),
-          169 => t('New Zealand'),
-          170 => t('Nicaragua'),
-          171 => t('Niger'),
-          172 => t('Nigeria'),
-          176 => t('Norway'),
-          177 => t('Oman'),
-          178 => t('Pakistan'),
-          179 => t('Palau'),
-          180 => t('Palestine'),
-          181 => t('Panama'),
-          182 => t('Papua New Guinea'),
-          184 => t('Paraguay'),
-          185 => t('Peru'),
-          186 => t('Philippines'),
-          188 => t('Poland'),
-          189 => t('Portugal'),
-          190 => t('Puerto Rico'),
-          191 => t('Qatar'),
-          43 => t('Republic of the Congo'),
-          194 => t('Romania'),
-          195 => t('Russia'),
-          196 => t('Rwanda'),
-          198 => t('Samoa'),
-          199 => t('San Marino'),
-          201 => t('Saudi Arabia'),
-          202 => t('Senegal'),
-          265 => t('Serbia'),
-          204 => t('Seychelles'),
-          205 => t('Sierra Leone'),
-          206 => t('Singapore'),
-          207 => t('Slovakia'),
-          208 => t('Slovenia'),
-          209 => t('Solomon Islands'),
-          210 => t('Somalia'),
-          211 => t('South Africa'),
-          213 => t('Spain'),
-          215 => t('Sri Lanka'),
-          218 => t('St Kitts and Nevis'),
-          219 => t('St Lucia'),
-          222 => t('St Vincent and the Grenadines'),
-          223 => t('Sudan'),
-          224 => t('Suriname'),
-          226 => t('Swaziland'),
-          227 => t('Sweden'),
-          228 => t('Switzerland'),
-          229 => t('Syria'),
-          230 => t('Taiwan'),
-          231 => t('Tajikistan'),
-          232 => t('Tanzania'),
-          233 => t('Thailand'),
-          235 => t('Togo'),
-          237 => t('Tonga'),
-          238 => t('Trinidad & Tobago'),
-          240 => t('Tunisia'),
-          241 => t('Turkey'),
-          242 => t('Turkmenistan'),
-          245 => t('Uganda'),
-          246 => t('Ukraine'),
-          247 => t('United Arab Emirates'),
-          248 => t('United Kingdom'),
-          251 => t('Uruguay'),
-          252 => t('Uzbekistan'),
-          253 => t('Vanuatu'),
-          254 => t('Venezuela'),
-          255 => t('Vietnam'),
-          260 => t('Yemen'),
-          261 => t('Zambia'),
-          262 => t('Zimbabwe')),
-        '#suffix' => '</div>',
-    );
-
-    $form['program'] = array(
-        '#type' => 'select',
-        '#title' => t('<b>Program:</b>'),
-        '#options' => array(
-            4 => t('Accounting and Financial Management'),
-            12 => t('Architecture'),
-            33 => t('Bioinformatics'),
-            43 => t('Biotechnology/Chartered Professional Accountancy'),
-            44 => t('Biotechnology/Economics'),
-            34 => t('Business Administration (Laurier) and Computer Science (Waterloo) Double Degree'),
-            35 => t('Business Administration (Laurier) and Mathematics (Waterloo) Double Degree'),
-            13 => t('Chemical Engineering'),
-            14 => t('Civil Engineering'),
-            15 => t('Computer Engineering'),
-            37 => t('Computer Science'),
-            38 => t('Computing and Financial Management'),
-            16 => t('Electrical Engineering'),
-            25 => t('Environment and Business'),
-            26 => t('Environment and Resource Studies'),
-            17 => t('Environmental Engineering'),
-            45 => t('Environmental Science'),
-            27 => t('Geography and Aviation'),
-            28 => t('Geography and Environmental Management'),
-            18 => t('Geological Engineering'),
-            29 => t('Geomatics'),
-            53 => t('Global Business and Digital Arts'),
-            54 => t('Health Promotion'),
-            1 => t('Health Studies'),
-            8 => t('Honours Arts'),
-            7 => t('Honours Arts - Renison University College'),
-            6 => t('Honours Arts - St. Jerome\'s University'),
-            5 => t('Honours Arts and Business'),
-            46 => t('Honours Science'),
-            9 => t('Independent Studies'),
-            30 => t('International Development'),
-            2 => t('Kinesiology'),
-            31 => t('Knowledge Integration'),
-            47 => t('Life Sciences'),
-            19 => t('Management Engineering'),
-            9 => t('Independent Studies'),
-            39 => t('Mathematics'),
-            40 => t('Mathematics/Business Administration'),
-            41 => t('Mathematics/Chartered Professional Accountancy'),
-            42 => t('Mathematics/Financial Analysis and Risk Management'),
-            20 => t('Mechanical Engineering'),
-            21 => t('Mechatronics Engineering'),
-            22 => t('Nanotechnology Engineering'),
-            51 => t('Optometry'),
-            52 => t('Pharmacy'),
-            48 => t('Physical Sciences'),
-            32 => t('Planning'),
-            3 => t('Recreation and Leisure Studies'),
-            49 => t('Science and Aviation'),
-            50 => t('Science and Business'),
-            10 => t('Social Development Studies'),
-            11 => t('Social Work'),
-            24 => t('Software Engineering'),
-            23 => t('Systems Design Engineering'),
-        ),
-        '#default_value' => 1,
-        '#prefix' => '<div class="section" id="programs">',
-        '#suffix' => '</div>',
-    );
-    $form['submit_button'] = array(
-        '#type' => 'submit',
-        '#value' => t('View requirements'),
-        '#prefix' => '<br />',
-    );
-    return $form;
-}
-function uw_admissions_page1_form_submit($form, &$form_state) {
-    // 3 is "other".
-    if ($form_state['input']['studentType'] == 3) {
-        // University/college transfer student
-        if ($form_state['input']['nonTypicalStudentTypes'] == 4) {
-            drupal_goto('https://uwaterloo.ca/find-out-more/transfer-students/admission-requirements-transfer-students ');
-        }
-        // Mature student
-        elseif ($form_state['input']['nonTypicalStudentTypes'] == 3) {
-            drupal_goto('https://uwaterloo.ca/find-out-more/admissions/mature-students');
-        }
-        // Home-schooled
-        elseif ($form_state['input']['nonTypicalStudentTypes'] == 2) {
-            drupal_goto('https://uwaterloo.ca/find-out-more/admissions/home-schooled-students');
-        }
-        // GED student
-        else{
-            drupal_goto('https://uwaterloo.ca/find-out-more/admissions/ged');
-        }
-    }
-
-    //dpm($form_state['input']);
-    $ap = 0;
-    $ib = 0;
-
-    if (isset($form_state['input']['apib'])) {
-        if (isset($form_state['input']['apib']['Advanced Placement (AP) student'])) {
-            $ap = 1;
-        }
-        else {
-            $ap = 0;
-        }
-        if (isset($form_state['input']['apib']['International Baccalaureate (IB) student'])) {
-            $ib = 1;
-        }
-        else {
-            $ib = 0;
-        }
-    }
-    
-    drupal_goto('admissions/admission-requirements/'
-    . $form_state['input']['studentType'] 
-    . '/' . $form_state['input']['province'] 
-    . '/' . $form_state['input']['system']
-    . '/' . $form_state['input']['country'] 
-    . '/' . $form_state['input']['program']
-    . '/' . $ap
-    . '/' . $ib);
-}
-function uw_admissions_page1_form_render() {
-    return drupal_get_form('uw_admissions_page1_form');
-}
-// Grabs the program name, recommended courses, average required (for both cegep and non-cegep), notes and more info links
-function uw_admissions_programs_query($program_id) {
-    $query = db_select('admissions_programs', 'p');
-    $query->leftJoin('admissions_domestic_recommended_courses', 'r', 'p.program_id = r.program_id');
-    $query
-        ->fields('p', array('faculty_id', 'program_name', 'domestic_average_required', 'cegep_average_required', 'notes', 'more_info_links'))
-        ->fields('r', array('recommended_courses'))
-        ->condition('p.program_id', $program_id, '=');
-    $result = $query->execute()->fetchAssoc();
-    return $result;
-}
-// Grabs the province name and general requirements
-function uw_admissions_domestic_province_query($province_id) {
-    $query = db_select('admissions_domestic_per_province', 'p')
-        ->fields('p', array('province_name', 'general_requirements'))
-        ->condition('province_id', $province_id, '=')
-        ->execute()
-        ->fetchAssoc();
-    return $query;
-}
-// Grabs the required courses (the correct equivalent).
-function uw_admissions_domestic_course_requirements($province_id, $program_id) {
-    // Joins CANNOT be chained.
-    // Also, I don't fully understand the chaining rules. Chaining execute and fetch all after conditions for some reason doesn't work here, but it does above.
-    $query = db_select('admissions_domestic_required_courses', 'r');
-    $query->innerJoin('admissions_domestic_courses', 'c', 'r.equiv_id = c.equiv_id');
-    $query
-        ->fields('c', array('equivalent'))
-        ->fields('r', array('minimum_grade'))
-        ->condition('r.program_id', $program_id, '=')
-        ->condition('c.province_id', $province_id, '=')
-        ->condition('r.equiv_id', 0, '!=')
-        ->condition('c.equivalent', '', '!=');
-    $result = $query->execute()->fetchAll();
-    return $result;
-}
-// Grabs the "x of the following" lists.
-function uw_admissions_domestic_list_requirements($province_id, $program_id) {
-    $query = db_select('admissions_domestic_required_courses', 'r');
-    $query->join('admissions_domestic_required_lists', 'l', 'l.list_id = r.list_id');
-    $query->join('admissions_domestic_courses', 'c', 'l.equiv_id = c.equiv_id');
-    
-    $query
-        ->fields('c', array('equivalent'))
-        ->fields('l', array('minimum_grade'))
-        ->fields('r', array('list_id', 'amount'))
-        ->condition('r.program_id', $program_id, '=')
-        ->condition('c.province_id', $province_id, '=')
-        ->condition('c.equivalent', '', '!=');
-    $result = $query->execute()->fetchAll();
-    return $result;
-}
-// Grabs the system name and general requirements for that system.
-function uw_admissions_international_systems_query($system_id) {
-    $query = db_select('systems_of_study', 's')
-        ->fields('s', array('system_name', 'general_requirements'))
-        ->condition('system_id', $system_id, '=')
-        ->execute()
-        ->fetchAssoc();
-    return $query;
-}
-// Grabs the actual requirements for a system given a specific program.
-function uw_admissions_international_systems_program_query($system_id, $program_id) {
-    $query = db_select('admissions_international_per_system', 'a')
-        ->fields('a', array('program_requirements'))
-        ->condition('system_id', $system_id, '=')
-        ->condition('program_id', $program_id, '=')
-        ->execute()
-        ->fetchAssoc();
-    return $query;
-}
-// Grabs the country name and general requirements for a given country ID.
-function uw_admissions_international_country_query($country_id) {
-    $query = db_select('admissions_international_countries', 'a')
-        ->fields('a', array('country_name', 'general_requirements'))
-        ->condition('country_id', $country_id, '=')
-        ->execute()
-        ->fetchAssoc();
-    return $query;
-}
-// This displays the actual admissions requirements.
-function uw_admissions_callback($studentType, $province, $system, $country, $program, $ap, $ib) {
-    db_set_active('mur');
-    $path = drupal_get_path('module', 'uw_admissions');
-    drupal_add_css($path . '/theme/css/uw_admissions_results.css');
-    $output = '';
-    // 1 is "domestic"
-    if ($studentType == 1) {
-        
-        $programResult = uw_admissions_programs_query($program);
-        $output = $output . '<span class="label">Program:</span> ' . $programResult['program_name'] . "<br />";
-        
-        $provinceResult = uw_admissions_domestic_province_query($province);
-        $output = $output . '<span class="label">Province:</span> ' . $provinceResult['province_name'] . "<br /><br />";    
-        
-        $output = $output . '<span class="label">Admission average:</span> ';
-        // 14 is CEGEP!
-        if ($province == 14) {
-            $output = $output . $programResult['cegep_average_required'];
-        }
-        // Every one else.
-        else{
-            $output = $output . $programResult['domestic_average_required'];
-        }
-        
-        $output = $output . '<br /><br />';
-        $admissionsResult = uw_admissions_domestic_course_requirements($province, $program);
-        
-        // Displays required courses
-        $requiredCoursesFlag = count($admissionsResult);
-        if ($requiredCoursesFlag) {
-            $output = $output . '<span class="label">Required courses:</span>';
-            $output = $output . '<ul>';
-            foreach ($admissionsResult as $node) {
-                $output = $output . '<li>' . $node->equivalent;
-                if ($node->minimum_grade) {
-                    $output = $output . '<span class="min_grade"> -- A minimum grade of ' . $node->minimum_grade . ' is required</span>';
-                }
-                $output = $output . '</li>';
-            }
-            $output = $output . '</ul>';
-        }
-        
-        // Displays the "x of the following" lists if there is any.
-        $admissionsListResult = uw_admissions_domestic_list_requirements($province, $program);
-        $lid = 0;
-        if ($requiredCoursesFlag && count($admissionsListResult)) {
-            foreach ($admissionsListResult as $node) {
-                if ($lid != $node->list_id) {
-                    $output = $output . '</ul>';
-                    $output = $output . $node->amount . ' of the following:';
-                    $output = $output . '<ul class="sublist">';
-                    $lid = $node->list_id;
-                }
-                if ($lid == 0) {
-                    $output = $output . $node->amount . ' of the following:';
-                    $output = $output . '<ul class="sublist">';
-                    $lid = $node->list_id;
-                }
-                $output = $output . '<li>' . $node->equivalent;
-                if ($node->minimum_grade) {
-                    $output = $output . ' <span class="min_grade"> -- A minimum grade of ' . $node->minimum_grade . ' is required</span>';
-                }
-                $output = $output . '</li>';
-            }
-            if ($lid != 0) {
-                $output = $output . '</ul>';
-            }
-        }
-        // Only Ontario should see the recommended courses.
-        if ($province == 9 && $programResult['recommended_courses'] != "") {
-            $output = $output . '<p><span class="label">Recommended courses:</span> ' . $programResult['recommended_courses'];
-        }
-        // Display any notes if there is any,
-        if ($programResult['notes'] != "") {
-            $output = $output . '<span class="label">Note:</span> <p>' . $programResult['notes'] . '</p>';
-        }
-        // The non-entry level programs (optometry, pharmacy, etc) don't get the general requirements
-        if ($program != 9 &&  $program != 11 &&  $program != 52 &&  $program != 51) {
-            $output = $output . '<span class="label">General requirements:</span>';
-            $output = $output . $provinceResult['general_requirements'];
-        }
-        // If the student is an Advanced Placement student
-        if ($ap) {
-            if ($programResult['faculty_id'] != 3) {
-                $output = $output . "<div class='label'>Advanced Placement (AP):</div><p>Advanced Placement (AP) courses are accepted as equivalent to required courses as long as secondary school graduation requirements are also met. For more information regarding transfer credits and advanced standing for AP courses, please visit our <a href='https://uwaterloo.ca/find-out-more/admissions/ap-transfer-credit'>AP transfer credit</a> policy page.</p>";
-            }
-            // 3 (Engineers) are told that AP courses don't matter.
-            else {
-                $output = $output . "<div class='label'>Advanced Placement (AP):</div><p>The Faculty of Engineering considers AP courses to be a good challenge and good preparation for our programs. You may find that you have covered some of the material in our first term courses but, in most cases, not enough for you to be exempted from the entire course without potentially running into academic difficulties later. The depth and level of problem-solving is very different in our Engineering programs than in AP courses and as a result, we don't grant first-year course exemptions for AP courses.</p>";
-            }
-        }
-        if ($ib) {
-            //Non-engineering, Ontario
-            if (($programResult['faculty_id'] != 3 || $program == 12) && $province == 9) {
-                $output = $output . "<div class='label'>International Baccalaureate (IB):</div><p>The University of Waterloo recognizes the IB Diploma program as excellent academic preparation for success at university. If you are taking IB courses, admission to Waterloo is based on your Ontario grade 12 U and M courses. For example, if you're taking an IB math course, your school will convert this course to MCV4U, MHF4U, or MDM4U. <br /><br />Learn about <a href='https://uwaterloo.ca/find-out-more/admissions/ib-transfer-credit'>transfer credits and advanced standing for IB courses.</a></p>";
-            }
-            //Non-engineering, out-of-province
-            elseif (($programResult['faculty_id'] != 3 || $program == 12) && $province != 9) {
-                $output = $output . "<div class='label'>International Baccalaureate (IB):</div><p>The University of Waterloo recognizes the IB Diploma program as excellent academic preparation for success at university. Admission to Waterloo will be based on your predicted IB grades or the grades provided by your high school.  You can view our <a href='//uwaterloo.ca/find-out-more/admissions/admission-requirements/4/" . $province . "/6/" . $country . "/" . $program . "/" . $ap . "/" . $ib . "'>specific IB requirements for your program.</a><br /><br />Learn about <a href='https://uwaterloo.ca/find-out-more/admissions/ib-transfer-credit'>transfer credits and advanced standing for IB courses.</a></p>";
-            }
-            //Engineering, Ontario
-            elseif (($programResult['faculty_id'] == 3) && $province == 9) {
-                $output = $output . "<div class='label'>International Baccalaureate (IB):</div><p>The University of Waterloo recognizes the IB Diploma program as excellent academic preparation for success at university. Admission to Waterloo is based on your Ontario grade 12 U and M courses. For example, if you're taking an IB math course, your school will convert this course to MCV4U, MHF4U, or MDM4U. <br /><br />We consider IB courses to be a good challenge and good preparation for our programs. If you’re admitted, you may find that you have covered some of the material in our first term courses but, in most cases, not enough for you to be exempted from the entire course without potentially running into academic difficulties later. The depth and level of problem-solving is very different in our Engineering programs than in IB courses. As a result, we don't grant first-year course exemptions for IB courses.</p>";
-            }
-            //Engineering, out-of-province
-            elseif (($programResult['faculty_id'] == 3) && $province != 9) {
-                $output = $output . "<div class='label'>International Baccalaureate (IB):</div><p>The University of Waterloo recognizes the IB Diploma program as excellent academic preparation for success at university. Admission to Waterloo will be based on your predicted IB grades or the grades provided by your high school.  You can view our <a href='//uwaterloo.ca/find-out-more/admissions/admission-requirements/4/" . $province . "/6/" . $country . "/" . $program . "/" . $ap . "/" . $ib . "'>specific IB requirements for your program.</a><br /><br />Transfer credit<br />We consider IB courses to be a good challenge and good preparation for our programs. If you’re admitted, you may find that you have covered some of the material in our first term courses but, in most cases, not enough for you to be exempted from the entire course without potentially running into academic difficulties later. The depth and level of problem-solving is very different in our Engineering programs than in IB courses. As a result, we don't grant first-year course exemptions for IB courses.</p>";
-            }
-        }
-    }
-    // 2 is international students
-    elseif ($studentType == 2) {        
-        $programResult = uw_admissions_programs_query($program);
-        $output = $output . '<span class="label">Program:</span> ' . $programResult['program_name'] . "<br />";
-        // 1000 is an arbitrary value says the student does not belong to one of the major international systems.
-        if ($system == 1000) {
-            $countryResult = uw_admissions_international_country_query($country);
-            $output = $output . '<span class="label">Country:</span> ' . $countryResult['country_name'] . "<br /><br />";
-            $output = $output . '<span class="label">General requirements:</span> ' . $countryResult['general_requirements'];
-            $output = $output . '<br /><br />';
-        }
-        // Students that DO belong to one of the major international programs.
-        else{
-            $systemResult = uw_admissions_international_systems_query($system);
-            $output = $output . '<span class="label">System of study:</span> ' . $systemResult['system_name'] . "<br /><br />";
-            $admissionsResult = uw_admissions_international_systems_program_query($system, $program);
-            $output = $output . '<span class="label">Program requirements:</span> ' . $admissionsResult['program_requirements'] . '<br /></br />';
-            if ($programResult['notes'] != "") {
-                $output = $output . '<span class="label">Note:</span> <p>' . $programResult['notes'] . '</p>';
-            }
-            //General requirements are not to be shown if it's not an entry level program (optometry, pharmacy, etc)
-            if ($program != 9 &&  $program != 11 &&  $program != 52 &&  $program != 51) {
-                $output = $output . '<span class="label">General requirements:</span> ' . $systemResult['general_requirements'];
-            }
-            //The American system for Math gets a special note telling kids to take the Euclid Math contest.
-            if ($system == 7 && $programResult['faculty_id'] == 5) {
-                $output = $output . '<p><strong>Note: </strong>The Faculty of Mathematics encourages all applicants to write the <a href="http://www.findoutmore.uwaterloo.ca/thenextstep/applicants/contests.php">Euclid Mathematics Contest</a> and to include their scores on the American High School Mathematics Exam (AHSME) and the American Invitational Mathematics Exam (AIME) if they have been invited to write it.</p>';
-            }
-            //For the American system for Engineering, there's a special note.
-            elseif ($system == 7 && $programResult['faculty_id'] == 3) {
-                $output = $output . '<p><strong>Note: </strong>For Engineering and Software Engineering, normally AP Calculus, AP Physics, 12th grade English, at least one high school Chemistry course, and at least 11th grade Pre-Calculus or equivalent, are required.</span></p>';
-            }
-            //IB students may be able to use some of their courses as transfer credits.
-            if (($programResult['faculty_id'] != 3 || $program == 12) && $system == 6) {
-                 $output = $output . '<p>Learn about <a href="https://uwaterloo.ca/find-out-more/admissions/ib-transfer-credit">transfer credits and advanced standing for IB courses.</a></p>';
-            }
-            //Engineering unfortunately does not give transfer credits to IB students.
-            elseif ($programResult['faculty_id'] == 3 && $system == 6) {
-                 $output = $output . '<p>We consider IB courses to be a good challenge and good preparation for our programs. If you’re admitted, you may find that you have covered some of the material in our first term courses but, in most cases, not enough for you to be exempted from the entire course without potentially running into academic difficulties later. The depth and level of problem-solving is very different in our Engineering programs than in IB courses. As a result, we don\'t grant first-year course exemptions for IB courses.</p>';
-            }
-        }
-    }
-    // Below is for when students click on "specific IB requirements for your program" link. All IB requirements are the same regardless of province or country, but this looks more tailored.
-    elseif ($studentType == 4) {
-        $programResult = uw_admissions_programs_query($program);
-        $output = $output . '<span class="label">Program:</span> ' . $programResult['program_name'] . "<br />";
-        $systemResult = uw_admissions_international_systems_query(6);
-        $output = $output . '<span class="label">System of study:</span> International Baccalaureate (IB)<br /><br />';
-        $admissionsResult = uw_admissions_international_systems_program_query(6, $program);
-        $output = $output . '<span class="label">Program requirements:</span> ' . $admissionsResult['program_requirements'] . '<br /><br />';
-        if ($programResult['notes'] != "") {
-            $output = $output . '<span class="label">Note:</span> <p>' . $programResult['notes'] . '</p>';
-        }
-        // The non-entry level programs (optometry, pharmacy, etc) don't get the general requirements
-        if ($program != 9 &&  $program != 11 &&  $program != 52 &&  $program != 51) {
-            $output = $output . '<span class="label">General requirements:</span> ' . $systemResult['general_requirements'];
-        }
-        // (7 = American, 5 = Math) - American students applying to math are encouraged to write the Euclid
-        if ($system == 7 && $programResult['faculty_id'] == 5) {
-            $output = $output . '<p><strong>Note: </strong>The Faculty of Mathematics encourages all applicants to write the <a href="http://www.findoutmore.uwaterloo.ca/thenextstep/applicants/contests.php">Euclid Mathematics Contest</a> and to include their scores on the American High School Mathematics Exam (AHSME) and the American Invitational Mathematics Exam (AIME) if they have been invited to write it.</p>';
-        }
-        // (7 = American, 3 = Engineering) - American students applying to engineering are given special requirements
-        elseif ($system == 7 && $programResult['faculty_id'] == 3) {
-            $output = $output . '<p><strong>Note: </strong>For Engineering and Software Engineering, normally AP Calculus, AP Physics, 12th grade English, at least one high school Chemistry course, and at least 11th grade Pre-Calculus or equivalent, are required.</span></p>';
-        }
-    }
-    // Other documentation
-    $output = $output . '<span class="label">Other documentation:</span><br />';
-    $output = $output . '<p>If your first language is not English, you may need to meet our <a href=" https://uwaterloo.ca/find-out-more/elr">English language requirements.</a></p>';
-    $output = $output . "<p>An <a href='https://uwaterloo.ca/find-out-more/aif'>Admission Information Form</a> must be filled out for most programs. Instructions will be included with the acknowledgment of your application.</p>";
-    
-    // More information links
-    $output = $output . '<span class="label">For more information:</span><br />';
-    $output = $output . '<p>' . $programResult['more_info_links'] . '</p>';
-    db_set_active();
-    return $output;
-}
+<?php
+/**
+ * @file
+ * Admissions module for UW's marketing and undergraduate recruitment department. Students will out a form for their on-campus visit. Upon doing this, the student will receive an email.
+ * The CTR scheduling system then uses this data to build the visitor centre schedule.
+ */
+ 
+ /**
+ * Implements hook_menu().
+ */
+function uw_admissions_menu() {
+  $items = array();
+  //The form itself.
+  $items['admissions/admission-requirements'] = array(
+    'title' => 'Admission requirements 2014',
+    'page callback' => 'drupal_get_form',
+    'page arguments' => array('uw_admissions_page1_form_render'),
+    'access arguments' => array('access content'),
+    'type' => MENU_NORMAL_ITEM,
+    'menu_name' => "main-menu",
+    'weight' => 100,
+  );
+  //This is the one that actually displays the results.
+  $items['admissions/admission-requirements/%/%/%/%/%/%/%'] = array(
+    'title' => 'Your 2014 admission requirements',
+    'page callback' => 'uw_admissions_callback',
+    'type' => MENU_NORMAL_ITEM,
+    'page arguments' => array(2, 3, 4, 5, 6, 7, 8), // these are the seven wildcards, see uw_admissions_page1_form_submit for more details
+    'access arguments' => array('access content'), // access arguments are required
+  );
+return $items;
+}
+//The admissions form.
+function uw_admissions_page1_form($form_state) {
+    $path = drupal_get_path('module', 'uw_admissions');
+    drupal_add_js($path . '/js/uw_admissions_page1.js');
+    drupal_add_css($path . '/theme/css/uw_admissions_form.css');
+    $form['studentType'] = array(
+        '#type' => 'select',
+        '#title' => t('<b>I am:</b>'),
+        '#options' => array(
+            1 => t('Attending / recently graduated from a Canadian high school'),
+            2 => t('Attending / recently graduated from a high school outside of Canada'),
+            3 => t('Other'),
+        ),
+        '#default_value' => 1,
+        '#prefix' => '<div class="section">',
+        '#suffix' => '</div>',
+    );
+    $form['nonTypicalStudentTypes'] = array(
+        '#type' => 'select',
+        '#options' => array(
+            1 => t('General Educational Development (GED) student'),
+            2 => t('Home-schooled student'),
+            3 => t('Mature student'),
+            4 => t('University or college student'),
+        ),
+        '#default_value' => 1,
+        '#prefix' => '<div class="section" id="nonTypicalStudentTypes">',
+        '#suffix' => '</div>',
+    );
+    $form['province'] = array(
+        '#type' => 'select',
+        '#title' => t('<b>My province/territory:</b>'),
+        '#options' => array(
+            1 => t('Alberta'),
+            2 => t('British Columbia'),
+            3 => t('Manitoba'),
+            4 => t('New Brunswick'),
+            5 => t('Newfoundland and Labrador'),
+            6 => t('Northwest Territories'),
+            7 => t('Nova Scotia'),
+            8 => t('Nunavut'),
+            9 => t('Ontario'),
+            10 => t('Prince Edward Island'),
+            11 => t('Quebec'),
+            14 => t('Quebec (CEGEP)'),
+            12 => t('Saskatchewan'),
+            13 => t('Yukon'),
+        ),
+        '#default_value' => 9,
+        '#prefix' => '<div id="canadian"><div class="section">',
+        '#suffix' => '</div>',
+    );
+    $form['apib'] = array(
+        '#type' => 'checkboxes',
+        '#options' => drupal_map_assoc(array(t('Advanced Placement (AP) student'), t('International Baccalaureate (IB) student'))),
+        '#title' => t('<b>I am an:</b>'),
+        '#prefix' => '<div class="section">',
+        '#suffix' => '</div></div>',
+    );
+    $form['system'] = array(
+        '#type' => 'radios',
+        '#title' => t('<b>System of study:</b>'),
+        '#options' => array(
+            7 => t('American (US) System'),
+            1 => t('British System (A-levels/International A-levels)'),
+            9 => t('Cambridge Pre-U'),
+            2 => t('Caribbean Advanced Proficiency Examination (CAPE)'),
+            3 => t('Chinese System'),
+            4 => t('French Baccalaureate'),
+            5 => t('Indian System'),
+            6 => t('International Baccalaureate (IB)'),
+            10 => t('Hong Kong Diploma of Secondary Education (HKDSE)'),
+			22 => t('Azerbaijan National System'),
+            1000 => t('I\'m studying in a country/system other than those listed above')),
+        '#prefix' => '<div id="international" class="section">',
+        '#default_value' => 1,
+    );
+    $form['country'] = array(
+        '#type' => 'select',
+        '#title' => t('<b>Country:</b>'),
+        '#options' => array(
+          1 => t('Afghanistan'),
+          3 => t('Albania'),
+          4 => t('Algeria'),
+          6 => t('Andorra'),
+          7 => t('Angola'),
+          8 => t('Anguilla'),
+          10 => t('Antigua & Barbuda'),
+          11 => t('Argentina'),
+          12 => t('Armenia'),
+          15 => t('Australia'),
+          16 => t('Austria'),
+          17 => t('Azerbaijan'),
+          18 => t('Bahamas'),
+          19 => t('Bahrain'),
+          20 => t('Bangladesh'),
+          21 => t('Barbados'),
+          23 => t('Belarus'),
+          24 => t('Belgium'),
+          25 => t('Belize'),
+          26 => t('Benin'),
+          27 => t('Bermuda'),
+          28 => t('Bhutan'),
+          29 => t('Bolivia'),
+          31 => t('Bosnia and Herzegovina'),
+          32 => t('Botswana'),
+          34 => t('Brazil'),
+          36 => t('British Virgin Islands'),
+          37 => t('Brunei'),
+          38 => t('Bulgaria'),
+          39 => t('Burkina Faso'),
+          40 => t('Burma'),
+          41 => t('Burundi'),
+          42 => t('Cambodia'),
+          33 => t('Cameroon Republic'),
+          44 => t('Cape Verde'),
+          45 => t('Cayman Islands'),
+          46 => t('Central Africa Republic'),
+          47 => t('Chad'),
+          48 => t('Chile'),
+          49 => t('China'),
+          53 => t('Colombia'),
+          54 => t('Comoros'),
+          57 => t('Costa Rica'),
+          58 => t('Cote D\'Ivoire'),
+          59 => t('Croatia'),
+          60 => t('Cuba'),
+          62 => t('Cyprus'),
+          63 => t('Czech Republic'),
+          64 => t('Democratic Republic of the Congo'),
+          65 => t('Denmark'),
+          67 => t('Djibouti'),
+          68 => t('Dominica'),
+          69 => t('Dominican Republic'),
+          70 => t('Ecuador'),
+          71 => t('Egypt'),
+          72 => t('El Salvador'),
+          74 => t('Eritrea'),
+          75 => t('Estonia'),
+          76 => t('Ethiopia'),
+          80 => t('Fiji'),
+          81 => t('Finland'),
+          82 => t('France'),
+          83 => t('French Guiana'),
+          86 => t('Gabon'),
+          66 => t('Gambia'),
+          89 => t('Georgia'),
+          90 => t('Germany'),
+          91 => t('Ghana'),
+          92 => t('Gibraltar'),
+          94 => t('Greece'),
+          96 => t('Grenada'),
+          99 => t('Guatemala'),
+          101 => t('Guinea'),
+          103 => t('Guyana'),
+          104 => t('Haiti'),
+          106 => t('Holy See'),
+          107 => t('Honduras'),
+          108 => t('Hong Kong'),
+          109 => t('Hungary'),
+          110 => t('Iceland'),
+          111 => t('India'),
+          112 => t('Indonesia'),
+          113 => t('Iran'),
+          114 => t('Iraq'),
+          115 => t('Ireland'),
+          117 => t('Israel'),
+          118 => t('Italy'),
+          119 => t('Jamaica'),
+          121 => t('Japan'),
+          123 => t('Jordan'),
+          125 => t('Kazakhstan'),
+          126 => t('Kenya'),
+          128 => t('Korea, North'),
+          129 => t('Korea, South'),
+          130 => t('Kuwait'),
+          131 => t('Kyrqyzstan'),
+          132 => t('Laos'),
+          133 => t('Latvia'),
+          134 => t('Lebanon'),
+          135 => t('Lesotho'),
+          136 => t('Liberia'),
+          137 => t('Libya'),
+          138 => t('Liechtenstein'),
+          139 => t('Lithuania'),
+          140 => t('Luxembourg'),
+          141 => t('Macau'),
+          142 => t('Macedonia'),
+          143 => t('Madagascar'),
+          144 => t('Malawi'),
+          145 => t('Malaysia'),
+          146 => t('Maldives'),
+          147 => t('Mali'),
+          148 => t('Malta'),
+          151 => t('Mauritania'),
+          152 => t('Mauritius'),
+          154 => t('Mexico'),
+          156 => t('Moldova, Republic Of'),
+          158 => t('Mongolia'),
+          203 => t('Montenegro'),
+          159 => t('Montserrat'),
+          160 => t('Morocco'),
+          161 => t('Mozambique'),
+          162 => t('Namibia'),
+          165 => t('Nepal'),
+          166 => t('Netherlands'),
+          169 => t('New Zealand'),
+          170 => t('Nicaragua'),
+          171 => t('Niger'),
+          172 => t('Nigeria'),
+          176 => t('Norway'),
+          177 => t('Oman'),
+          178 => t('Pakistan'),
+          179 => t('Palau'),
+          180 => t('Palestine'),
+          181 => t('Panama'),
+          182 => t('Papua New Guinea'),
+          184 => t('Paraguay'),
+          185 => t('Peru'),
+          186 => t('Philippines'),
+          188 => t('Poland'),
+          189 => t('Portugal'),
+          190 => t('Puerto Rico'),
+          191 => t('Qatar'),
+          43 => t('Republic of the Congo'),
+          194 => t('Romania'),
+          195 => t('Russia'),
+          196 => t('Rwanda'),
+          198 => t('Samoa'),
+          199 => t('San Marino'),
+          201 => t('Saudi Arabia'),
+          202 => t('Senegal'),
+          265 => t('Serbia'),
+          204 => t('Seychelles'),
+          205 => t('Sierra Leone'),
+          206 => t('Singapore'),
+          207 => t('Slovakia'),
+          208 => t('Slovenia'),
+          209 => t('Solomon Islands'),
+          210 => t('Somalia'),
+          211 => t('South Africa'),
+          213 => t('Spain'),
+          215 => t('Sri Lanka'),
+          218 => t('St Kitts and Nevis'),
+          219 => t('St Lucia'),
+          222 => t('St Vincent and the Grenadines'),
+          223 => t('Sudan'),
+          224 => t('Suriname'),
+          226 => t('Swaziland'),
+          227 => t('Sweden'),
+          228 => t('Switzerland'),
+          229 => t('Syria'),
+          230 => t('Taiwan'),
+          231 => t('Tajikistan'),
+          232 => t('Tanzania'),
+          233 => t('Thailand'),
+          235 => t('Togo'),
+          237 => t('Tonga'),
+          238 => t('Trinidad & Tobago'),
+          240 => t('Tunisia'),
+          241 => t('Turkey'),
+          242 => t('Turkmenistan'),
+          245 => t('Uganda'),
+          246 => t('Ukraine'),
+          247 => t('United Arab Emirates'),
+          248 => t('United Kingdom'),
+          251 => t('Uruguay'),
+          252 => t('Uzbekistan'),
+          253 => t('Vanuatu'),
+          254 => t('Venezuela'),
+          255 => t('Vietnam'),
+          260 => t('Yemen'),
+          261 => t('Zambia'),
+          262 => t('Zimbabwe')),
+        '#suffix' => '</div>',
+    );
+
+    $form['program'] = array(
+        '#type' => 'select',
+        '#title' => t('<b>Program:</b>'),
+        '#options' => array(
+            4 => t('Accounting and Financial Management'),
+            12 => t('Architecture'),
+            33 => t('Bioinformatics'),
+            43 => t('Biotechnology/Chartered Professional Accountancy'),
+            44 => t('Biotechnology/Economics'),
+            34 => t('Business Administration (Laurier) and Computer Science (Waterloo) Double Degree'),
+            35 => t('Business Administration (Laurier) and Mathematics (Waterloo) Double Degree'),
+            13 => t('Chemical Engineering'),
+            14 => t('Civil Engineering'),
+            15 => t('Computer Engineering'),
+            37 => t('Computer Science'),
+            38 => t('Computing and Financial Management'),
+            16 => t('Electrical Engineering'),
+            25 => t('Environment and Business'),
+            26 => t('Environment and Resource Studies'),
+            17 => t('Environmental Engineering'),
+            45 => t('Environmental Science'),
+            27 => t('Geography and Aviation'),
+            28 => t('Geography and Environmental Management'),
+            18 => t('Geological Engineering'),
+            29 => t('Geomatics'),
+            53 => t('Global Business and Digital Arts'),
+            54 => t('Health Promotion'),
+            1 => t('Health Studies'),
+            8 => t('Honours Arts'),
+            7 => t('Honours Arts - Renison University College'),
+            6 => t('Honours Arts - St. Jerome\'s University'),
+            5 => t('Honours Arts and Business'),
+            46 => t('Honours Science'),
+            9 => t('Independent Studies'),
+            30 => t('International Development'),
+            2 => t('Kinesiology'),
+            31 => t('Knowledge Integration'),
+            47 => t('Life Sciences'),
+            19 => t('Management Engineering'),
+            9 => t('Independent Studies'),
+            39 => t('Mathematics'),
+            40 => t('Mathematics/Business Administration'),
+            41 => t('Mathematics/Chartered Professional Accountancy'),
+            42 => t('Mathematics/Financial Analysis and Risk Management'),
+            20 => t('Mechanical Engineering'),
+            21 => t('Mechatronics Engineering'),
+            22 => t('Nanotechnology Engineering'),
+            51 => t('Optometry'),
+            52 => t('Pharmacy'),
+            48 => t('Physical Sciences'),
+            32 => t('Planning'),
+            3 => t('Recreation and Leisure Studies'),
+            49 => t('Science and Aviation'),
+            50 => t('Science and Business'),
+            10 => t('Social Development Studies'),
+            11 => t('Social Work'),
+            24 => t('Software Engineering'),
+            23 => t('Systems Design Engineering'),
+        ),
+        '#default_value' => 1,
+        '#prefix' => '<div class="section" id="programs">',
+        '#suffix' => '</div>',
+    );
+    $form['submit_button'] = array(
+        '#type' => 'submit',
+        '#value' => t('View requirements'),
+        '#prefix' => '<br />',
+    );
+    return $form;
+}
+function uw_admissions_page1_form_submit($form, &$form_state) {
+    // 3 is "other".
+    if ($form_state['input']['studentType'] == 3) {
+        // University/college transfer student
+        if ($form_state['input']['nonTypicalStudentTypes'] == 4) {
+            drupal_goto('https://uwaterloo.ca/find-out-more/transfer-students/admission-requirements-transfer-students ');
+        }
+        // Mature student
+        elseif ($form_state['input']['nonTypicalStudentTypes'] == 3) {
+            drupal_goto('https://uwaterloo.ca/find-out-more/admissions/mature-students');
+        }
+        // Home-schooled
+        elseif ($form_state['input']['nonTypicalStudentTypes'] == 2) {
+            drupal_goto('https://uwaterloo.ca/find-out-more/admissions/home-schooled-students');
+        }
+        // GED student
+        else{
+            drupal_goto('https://uwaterloo.ca/find-out-more/admissions/ged');
+        }
+    }
+
+    //dpm($form_state['input']);
+    $ap = 0;
+    $ib = 0;
+
+    if (isset($form_state['input']['apib'])) {
+        if (isset($form_state['input']['apib']['Advanced Placement (AP) student'])) {
+            $ap = 1;
+        }
+        else {
+            $ap = 0;
+        }
+        if (isset($form_state['input']['apib']['International Baccalaureate (IB) student'])) {
+            $ib = 1;
+        }
+        else {
+            $ib = 0;
+        }
+    }
+    
+    drupal_goto('admissions/admission-requirements/'
+    . $form_state['input']['studentType'] 
+    . '/' . $form_state['input']['province'] 
+    . '/' . $form_state['input']['system']
+    . '/' . $form_state['input']['country'] 
+    . '/' . $form_state['input']['program']
+    . '/' . $ap
+    . '/' . $ib);
+}
+function uw_admissions_page1_form_render() {
+    return drupal_get_form('uw_admissions_page1_form');
+}
+// Grabs the program name, recommended courses, average required (for both cegep and non-cegep), notes and more info links
+function uw_admissions_programs_query($program_id) {
+    $query = db_select('admissions_programs', 'p');
+    $query->leftJoin('admissions_domestic_recommended_courses', 'r', 'p.program_id = r.program_id');
+    $query
+        ->fields('p', array('faculty_id', 'program_name', 'domestic_average_required', 'cegep_average_required', 'notes', 'more_info_links'))
+        ->fields('r', array('recommended_courses'))
+        ->condition('p.program_id', $program_id, '=');
+    $result = $query->execute()->fetchAssoc();
+    return $result;
+}
+// Grabs the province name and general requirements
+function uw_admissions_domestic_province_query($province_id) {
+    $query = db_select('admissions_domestic_per_province', 'p')
+        ->fields('p', array('province_name', 'general_requirements'))
+        ->condition('province_id', $province_id, '=')
+        ->execute()
+        ->fetchAssoc();
+    return $query;
+}
+// Grabs the required courses (the correct equivalent).
+function uw_admissions_domestic_course_requirements($province_id, $program_id) {
+    // Joins CANNOT be chained.
+    // Also, I don't fully understand the chaining rules. Chaining execute and fetch all after conditions for some reason doesn't work here, but it does above.
+    $query = db_select('admissions_domestic_required_courses', 'r');
+    $query->innerJoin('admissions_domestic_courses', 'c', 'r.equiv_id = c.equiv_id');
+    $query
+        ->fields('c', array('equivalent'))
+        ->fields('r', array('minimum_grade'))
+        ->condition('r.program_id', $program_id, '=')
+        ->condition('c.province_id', $province_id, '=')
+        ->condition('r.equiv_id', 0, '!=')
+        ->condition('c.equivalent', '', '!=');
+    $result = $query->execute()->fetchAll();
+    return $result;
+}
+// Grabs the "x of the following" lists.
+function uw_admissions_domestic_list_requirements($province_id, $program_id) {
+    $query = db_select('admissions_domestic_required_courses', 'r');
+    $query->join('admissions_domestic_required_lists', 'l', 'l.list_id = r.list_id');
+    $query->join('admissions_domestic_courses', 'c', 'l.equiv_id = c.equiv_id');
+    
+    $query
+        ->fields('c', array('equivalent'))
+        ->fields('l', array('minimum_grade'))
+        ->fields('r', array('list_id', 'amount'))
+        ->condition('r.program_id', $program_id, '=')
+        ->condition('c.province_id', $province_id, '=')
+        ->condition('c.equivalent', '', '!=')
+		->orderBy('list_id', 'ASC');
+    $result = $query->execute()->fetchAll();
+    return $result;
+}
+// Grabs the "x of the following" lists and counts the number of programs in a list.
+function uw_admissions_domestic_list_count($province_id, $program_id) {
+    $query = db_select('admissions_domestic_required_courses', 'r');
+    $query->join('admissions_domestic_required_lists', 'l', 'l.list_id = r.list_id');
+    $query->join('admissions_domestic_courses', 'c', 'l.equiv_id = c.equiv_id');
+    
+    $query
+        ->fields('c', array('equivalent'))
+        ->fields('l', array('minimum_grade'))
+        ->fields('r', array('list_id', 'amount'))
+        ->condition('r.program_id', $program_id, '=')
+        ->condition('c.province_id', $province_id, '=')
+        ->condition('c.equivalent', '', '!=')
+		->groupBy('list_id')
+		->addExpression('COUNT(*)', 'ncount');
+    $result = $query->execute()->fetchAll();
+    return $result;
+}
+// Grabs the system name and general requirements for that system.
+function uw_admissions_international_systems_query($system_id) {
+    $query = db_select('systems_of_study', 's')
+        ->fields('s', array('system_name', 'general_requirements'))
+        ->condition('system_id', $system_id, '=')
+        ->execute()
+        ->fetchAssoc();
+    return $query;
+}
+// Grabs the actual requirements for a system given a specific program.
+function uw_admissions_international_systems_program_query($system_id, $program_id) {
+    $query = db_select('admissions_international_per_system', 'a')
+        ->fields('a', array('program_requirements'))
+        ->condition('system_id', $system_id, '=')
+        ->condition('program_id', $program_id, '=')
+        ->execute()
+        ->fetchAssoc();
+    return $query;
+}
+// Grabs the country name and general requirements for a given country ID.
+function uw_admissions_international_country_query($country_id) {
+    $query = db_select('admissions_international_countries', 'a')
+        ->fields('a', array('country_name', 'general_requirements'))
+        ->condition('country_id', $country_id, '=')
+        ->execute()
+        ->fetchAssoc();
+    return $query;
+}
+// This displays the actual admissions requirements.
+function uw_admissions_callback($studentType, $province, $system, $country, $program, $ap, $ib) {
+    db_set_active('mur');
+    $path = drupal_get_path('module', 'uw_admissions');
+    drupal_add_css($path . '/theme/css/uw_admissions_results.css');
+    $output = '';
+    // 1 is "domestic"
+    if ($studentType == 1) {
+        
+        $programResult = uw_admissions_programs_query($program);
+        $output = $output . '<span class="label">Program:</span> ' . $programResult['program_name'] . "<br />";
+        
+        $provinceResult = uw_admissions_domestic_province_query($province);
+        $output = $output . '<span class="label">Province:</span> ' . $provinceResult['province_name'] . "<br /><br />";    
+        
+        $output = $output . '<span class="label">Admission average:</span> ';
+        // 14 is CEGEP!
+        if ($province == 14) {
+            $output = $output . $programResult['cegep_average_required'];
+        }
+        // Every one else.
+        else{
+            $output = $output . $programResult['domestic_average_required'];
+        }
+        
+        $output = $output . '<br /><br />';
+        $admissionsResult = uw_admissions_domestic_course_requirements($province, $program);
+        
+        // Displays required courses
+        $requiredCoursesFlag = count($admissionsResult);
+        if ($requiredCoursesFlag) {
+            $output = $output . '<span class="label">Required courses:</span>';
+            $output = $output . '<ul>';
+            foreach ($admissionsResult as $node) {
+                $output = $output . '<li>' . $node->equivalent;
+                if ($node->minimum_grade) {
+                    $output = $output . '<span class="min_grade"> -- A minimum grade of ' . $node->minimum_grade . ' is required</span>';
+                }
+                $output = $output . '</li>';
+            }
+			$admissionsListResult = uw_admissions_domestic_list_requirements($province, $program);
+        $admissionsListResultCount = uw_admissions_domestic_list_count($province, $program);
+        $lid = 0;
+		
+        if ($requiredCoursesFlag && count($admissionsListResult)) 
+		{
+			foreach ($admissionsListResultCount as $node1) 
+			{
+				if ($node1->ncount == 1) 
+				{								
+					foreach ($admissionsListResult as $node) 
+					{
+						if ($node1->list_id == $node->list_id ) 
+						{
+							$output = $output . '<li>' . $node->equivalent;
+							if ($node->minimum_grade) 
+							{
+								$output = $output . ' <span class="min_grade"> -- A minimum grade of ' . $node->minimum_grade . ' is required</span>';
+							}
+								$output = $output . '</li>';
+						}
+					}		
+				}
+			}
+        }
+            $output = $output . '</ul>';
+        }
+		
+		
+		
+        
+        // Displays the "x of the following" lists if there is any.
+        $admissionsListResult = uw_admissions_domestic_list_requirements($province, $program);
+        $admissionsListResultCount = uw_admissions_domestic_list_count($province, $program);
+        $lid = 0;
+		
+        if ($requiredCoursesFlag && count($admissionsListResult)) 
+		{
+			foreach ($admissionsListResultCount as $node1) 
+			{
+				if ($node1->ncount > 1) 
+				{			
+					$output = $output . '</ul>';
+					$output = $output . $node1->amount . ' of the following:';
+					$output = $output . '<ul class="sublist">';		
+					
+					foreach ($admissionsListResult as $node) 
+					{
+						if ($node1->list_id == $node->list_id ) 
+						{
+							$output = $output . '<li>' . $node->equivalent;
+							if ($node->minimum_grade) 
+							{
+								$output = $output . ' <span class="min_grade"> -- A minimum grade of ' . $node->minimum_grade . ' is required</span>';
+							}
+								$output = $output . '</li>';
+						}
+					}	
+					$output = $output . '</ul>';	
+				}
+			}
+        }
+		
+        // Only Ontario should see the recommended courses.
+        if ($province == 9 && $programResult['recommended_courses'] != "") {
+            $output = $output . '<p><span class="label">Recommended courses:</span> ' . $programResult['recommended_courses'];
+        }
+        // Display any notes if there is any,
+        if ($programResult['notes'] != "") {
+            $output = $output . '<span class="label">Note:</span> <p>' . $programResult['notes'] . '</p>';
+        }
+        // The non-entry level programs (optometry, pharmacy, etc) don't get the general requirements
+        if ($program != 9 &&  $program != 11 &&  $program != 52 &&  $program != 51) {
+            $output = $output . '<span class="label">General requirements:</span>';
+            $output = $output . $provinceResult['general_requirements'];
+        }
+        // If the student is an Advanced Placement student
+        if ($ap) {
+            if ($programResult['faculty_id'] != 3) {
+                $output = $output . "<div class='label'>Advanced Placement (AP):</div><p>Advanced Placement (AP) courses are accepted as equivalent to required courses as long as secondary school graduation requirements are also met. For more information regarding transfer credits and advanced standing for AP courses, please visit our <a href='https://uwaterloo.ca/find-out-more/admissions/ap-transfer-credit'>AP transfer credit</a> policy page.</p>";
+            }
+            // 3 (Engineers) are told that AP courses don't matter.
+            else {
+                $output = $output . "<div class='label'>Advanced Placement (AP):</div><p>The Faculty of Engineering considers AP courses to be a good challenge and good preparation for our programs. You may find that you have covered some of the material in our first term courses but, in most cases, not enough for you to be exempted from the entire course without potentially running into academic difficulties later. The depth and level of problem-solving is very different in our Engineering programs than in AP courses and as a result, we don't grant first-year course exemptions for AP courses.</p>";
+            }
+        }
+        if ($ib) {
+            //Non-engineering, Ontario
+            if (($programResult['faculty_id'] != 3 || $program == 12) && $province == 9) {
+                $output = $output . "<div class='label'>International Baccalaureate (IB):</div><p>The University of Waterloo recognizes the IB Diploma program as excellent academic preparation for success at university. If you are taking IB courses, admission to Waterloo is based on your Ontario grade 12 U and M courses. For example, if you're taking an IB math course, your school will convert this course to MCV4U, MHF4U, or MDM4U. <br /><br />Learn about <a href='https://uwaterloo.ca/find-out-more/admissions/ib-transfer-credit'>transfer credits and advanced standing for IB courses.</a></p>";
+            }
+            //Non-engineering, out-of-province
+            elseif (($programResult['faculty_id'] != 3 || $program == 12) && $province != 9) {
+                $output = $output . "<div class='label'>International Baccalaureate (IB):</div><p>The University of Waterloo recognizes the IB Diploma program as excellent academic preparation for success at university. Admission to Waterloo will be based on your predicted IB grades or the grades provided by your high school.  You can view our <a href='//uwaterloo.ca/find-out-more/admissions/admission-requirements/4/" . $province . "/6/" . $country . "/" . $program . "/" . $ap . "/" . $ib . "'>specific IB requirements for your program.</a><br /><br />Learn about <a href='https://uwaterloo.ca/find-out-more/admissions/ib-transfer-credit'>transfer credits and advanced standing for IB courses.</a></p>";
+            }
+            //Engineering, Ontario
+            elseif (($programResult['faculty_id'] == 3) && $province == 9) {
+                $output = $output . "<div class='label'>International Baccalaureate (IB):</div><p>The University of Waterloo recognizes the IB Diploma program as excellent academic preparation for success at university. Admission to Waterloo is based on your Ontario grade 12 U and M courses. For example, if you're taking an IB math course, your school will convert this course to MCV4U, MHF4U, or MDM4U. <br /><br />We consider IB courses to be a good challenge and good preparation for our programs. If you’re admitted, you may find that you have covered some of the material in our first term courses but, in most cases, not enough for you to be exempted from the entire course without potentially running into academic difficulties later. The depth and level of problem-solving is very different in our Engineering programs than in IB courses. As a result, we don't grant first-year course exemptions for IB courses.</p>";
+            }
+            //Engineering, out-of-province
+            elseif (($programResult['faculty_id'] == 3) && $province != 9) {
+                $output = $output . "<div class='label'>International Baccalaureate (IB):</div><p>The University of Waterloo recognizes the IB Diploma program as excellent academic preparation for success at university. Admission to Waterloo will be based on your predicted IB grades or the grades provided by your high school.  You can view our <a href='//uwaterloo.ca/find-out-more/admissions/admission-requirements/4/" . $province . "/6/" . $country . "/" . $program . "/" . $ap . "/" . $ib . "'>specific IB requirements for your program.</a><br /><br />Transfer credit<br />We consider IB courses to be a good challenge and good preparation for our programs. If you’re admitted, you may find that you have covered some of the material in our first term courses but, in most cases, not enough for you to be exempted from the entire course without potentially running into academic difficulties later. The depth and level of problem-solving is very different in our Engineering programs than in IB courses. As a result, we don't grant first-year course exemptions for IB courses.</p>";
+            }
+        }
+    }
+    // 2 is international students
+    elseif ($studentType == 2) {        
+        $programResult = uw_admissions_programs_query($program);
+        $output = $output . '<span class="label">Program:</span> ' . $programResult['program_name'] . "<br />";
+        // 1000 is an arbitrary value says the student does not belong to one of the major international systems.
+        if ($system == 1000) {
+            $countryResult = uw_admissions_international_country_query($country);
+            $output = $output . '<span class="label">Country:</span> ' . $countryResult['country_name'] . "<br /><br />";
+            $output = $output . '<span class="label">General requirements:</span> ' . $countryResult['general_requirements'];
+            $output = $output . '<br /><br />';
+        }
+        // Students that DO belong to one of the major international programs.
+        else{
+            $systemResult = uw_admissions_international_systems_query($system);
+            $output = $output . '<span class="label">System of study:</span> ' . $systemResult['system_name'] . "<br /><br />";
+            $admissionsResult = uw_admissions_international_systems_program_query($system, $program);
+            $output = $output . '<span class="label">Program requirements:</span> ' . $admissionsResult['program_requirements'] . '<br /></br />';
+            if ($programResult['notes'] != "") {
+                $output = $output . '<span class="label">Note:</span> <p>' . $programResult['notes'] . '</p>';
+            }
+            //General requirements are not to be shown if it's not an entry level program (optometry, pharmacy, etc)
+            if ($program != 9 &&  $program != 11 &&  $program != 52 &&  $program != 51) {
+                $output = $output . '<span class="label">General requirements:</span> ' . $systemResult['general_requirements'];
+            }
+            //The American system for Math gets a special note telling kids to take the Euclid Math contest.
+            if ($system == 7 && $programResult['faculty_id'] == 5) {
+                $output = $output . '<p><strong>Note: </strong>The Faculty of Mathematics encourages all applicants to write the <a href="http://www.findoutmore.uwaterloo.ca/thenextstep/applicants/contests.php">Euclid Mathematics Contest</a> and to include their scores on the American High School Mathematics Exam (AHSME) and the American Invitational Mathematics Exam (AIME) if they have been invited to write it.</p>';
+            }
+            //For the American system for Engineering, there's a special note.
+            elseif ($system == 7 && $programResult['faculty_id'] == 3) {
+                $output = $output . '<p><strong>Note: </strong>For Engineering and Software Engineering, normally AP Calculus, AP Physics, 12th grade English, at least one high school Chemistry course, and at least 11th grade Pre-Calculus or equivalent, are required.</span></p>';
+            }
+            //IB students may be able to use some of their courses as transfer credits.
+            if (($programResult['faculty_id'] != 3 || $program == 12) && $system == 6) {
+                 $output = $output . '<p>Learn about <a href="https://uwaterloo.ca/find-out-more/admissions/ib-transfer-credit">transfer credits and advanced standing for IB courses.</a></p>';
+            }
+            //Engineering unfortunately does not give transfer credits to IB students.
+            elseif ($programResult['faculty_id'] == 3 && $system == 6) {
+                 $output = $output . '<p>We consider IB courses to be a good challenge and good preparation for our programs. If you’re admitted, you may find that you have covered some of the material in our first term courses but, in most cases, not enough for you to be exempted from the entire course without potentially running into academic difficulties later. The depth and level of problem-solving is very different in our Engineering programs than in IB courses. As a result, we don\'t grant first-year course exemptions for IB courses.</p>';
+            }
+        }
+    }
+    // Below is for when students click on "specific IB requirements for your program" link. All IB requirements are the same regardless of province or country, but this looks more tailored.
+    elseif ($studentType == 4) {
+        $programResult = uw_admissions_programs_query($program);
+        $output = $output . '<span class="label">Program:</span> ' . $programResult['program_name'] . "<br />";
+        $systemResult = uw_admissions_international_systems_query(6);
+        $output = $output . '<span class="label">System of study:</span> International Baccalaureate (IB)<br /><br />';
+        $admissionsResult = uw_admissions_international_systems_program_query(6, $program);
+        $output = $output . '<span class="label">Program requirements:</span> ' . $admissionsResult['program_requirements'] . '<br /><br />';
+        if ($programResult['notes'] != "") {
+            $output = $output . '<span class="label">Note:</span> <p>' . $programResult['notes'] . '</p>';
+        }
+        // The non-entry level programs (optometry, pharmacy, etc) don't get the general requirements
+        if ($program != 9 &&  $program != 11 &&  $program != 52 &&  $program != 51) {
+            $output = $output . '<span class="label">General requirements:</span> ' . $systemResult['general_requirements'];
+        }
+        // (7 = American, 5 = Math) - American students applying to math are encouraged to write the Euclid
+        if ($system == 7 && $programResult['faculty_id'] == 5) {
+            $output = $output . '<p><strong>Note: </strong>The Faculty of Mathematics encourages all applicants to write the <a href="http://www.findoutmore.uwaterloo.ca/thenextstep/applicants/contests.php">Euclid Mathematics Contest</a> and to include their scores on the American High School Mathematics Exam (AHSME) and the American Invitational Mathematics Exam (AIME) if they have been invited to write it.</p>';
+        }
+        // (7 = American, 3 = Engineering) - American students applying to engineering are given special requirements
+        elseif ($system == 7 && $programResult['faculty_id'] == 3) {
+            $output = $output . '<p><strong>Note: </strong>For Engineering and Software Engineering, normally AP Calculus, AP Physics, 12th grade English, at least one high school Chemistry course, and at least 11th grade Pre-Calculus or equivalent, are required.</span></p>';
+        }
+    }
+    // Other documentation
+    $output = $output . '<span class="label">Other documentation:</span><br />';
+    $output = $output . '<p>If your first language is not English, you may need to meet our <a href=" https://uwaterloo.ca/find-out-more/elr">English language requirements.</a></p>';
+    $output = $output . "<p>An <a href='https://uwaterloo.ca/find-out-more/aif'>Admission Information Form</a> must be filled out for most programs. Instructions will be included with the acknowledgment of your application.</p>";
+    
+    // More information links
+    $output = $output . '<span class="label">For more information:</span><br />';
+    $output = $output . '<p>' . $programResult['more_info_links'] . '</p>';
+    db_set_active();
+    return $output;
+}
